Generalized Linear Models
…
```
## # A tibble: 682 × 6
##    bin.frail frail_status race  SCRPTAGE SCRMMSET ed_cat      
##        <dbl> <chr>        <fct>    <dbl>    <dbl> <fct>       
##  1         1 frail        white       75       30 HS Grad     
##  2         1 frail        white       71       26 No HS       
##  3         1 frail        black       71       25 Some HS     
##  4         1 frail        black       70       24 Some college
##  5         0 not frail    white       75       30 Some college
##  6         0 not frail    white       73       26 Some HS     
##  7         0 not frail    white       70       28 No HS       
##  8         0 not frail    black       70       25 No HS       
##  9         0 not frail    white       70       29 Some college
## 10         0 not frail    white       72       29 HS Grad     
## # … with 672 more rows
```
…
